…
    ## Rows: 4321 Columns: 12
    ## ── Column specification ────────────────────────────────────────────────────────
    ## Delimiter: ","
    ## chr (7): iso2, iso3, FIPS, Admin2, Province_State, Country_Region, Combined_Key
    ## dbl (5): UID, code3, Lat, Long_, Population
    ## 
    ## ℹ Use `spec()` to retrieve the full column specification for this data.
    ## ℹ Specify the column types or set `show_col_types = FALSE` to quiet this message.

``` r
uid
```

    ## # A tibble: 4,321 × 5
    ##      UID FIPS  Province_State Country_Region      Population
    ##    <dbl> <chr> <chr>          <chr>                    <dbl>
    ##  1     4 <NA>  <NA>           Afghanistan           38928341
    ##  2     8 <NA>  <NA>           Albania                2877800
    ##  3    10 <NA>  <NA>           Antarctica                  NA
    ##  4    12 <NA>  <NA>           Algeria               43851043
    ##  5    20 <NA>  <NA>           Andorra                  77265
    ##  6    24 <NA>  <NA>           Angola                32866268
    ##  7    28 <NA>  <NA>           Antigua and Barbuda      97928
    ##  8    32 <NA>  <NA>           Argentina             45195777
    ##  9    51 <NA>  <NA>           Armenia                2963234
    ## 10    40 <NA>  <NA>           Austria                9006400
    ## # ℹ 4,311 more rows

``` r
#Conduct a left join of the global dataset with the population data
#Removing Rpovince_state and Combined_key
global_join = global %>% left_join(uid, by = c("Province_State", "Country_Region")) %>%
select(-c(UID, FIPS)) %>% select (Country_Region, date, cases, deaths, Population)

global_join
```

    ## # A tibble: 306,827 × 5
    ##    Country_Region date       cases deaths Population
    ##    <chr>          <date>     <dbl>  <dbl>      <dbl>
    ##  1 Afghanistan    2020-02-24     5      0   38928341
    ##  2 Afghanistan    2020-02-25     5      0   38928341
    ##  3 Afghanistan    2020-02-26     5      0   38928341
    ##  4 Afghanistan    2020-02-27     5      0   38928341
    ##  5 Afghanistan    2020-02-28     5      0   38928341
    ##  6 Afghanistan    2020-02-29     5      0   38928341
    ##  7 Afghanistan    2020-03-01     5      0   38928341
    ##  8 Afghanistan    2020-03-02     5      0   38928341
    ##  9 Afghanistan    2020-03-03     5      0   38928341
    ## 10 Afghanistan    2020-03-04     5      0   38928341
    ## # ℹ 306,817 more rows
…
``` r
#Summarize Nigeria data by cases/deaths per million
Nigeria_summary = global_frag %>% filter(Country_Region == Country) %>% select(-c(month, year)) %>% mutate(cases_per_mill = cases*1000000/Population,deaths_per_mill = deaths*1000000/Population)%>% select(Country_Region, date, cases, deaths, cases_per_mill, deaths_per_mill, Population)
Nigeria_summary
```

    ## # A tibble: 1,106 × 7
    ##    Country_Region date       cases deaths cases_per_mill deaths_per_mill
    ##    <chr>          <date>     <dbl>  <dbl>          <dbl>           <dbl>
    ##  1 Nigeria        2020-02-28     1      0        0.00485               0
    ##  2 Nigeria        2020-02-29     1      0        0.00485               0
    ##  3 Nigeria        2020-03-01     1      0        0.00485               0
    ##  4 Nigeria        2020-03-02     1      0        0.00485               0
    ##  5 Nigeria        2020-03-03     1      0        0.00485               0
    ##  6 Nigeria        2020-03-04     1      0        0.00485               0
    ##  7 Nigeria        2020-03-05     1      0        0.00485               0
    ##  8 Nigeria        2020-03-06     1      0        0.00485               0
    ##  9 Nigeria        2020-03-07     1      0        0.00485               0
    ## 10 Nigeria        2020-03-08     1      0        0.00485               0
    ## # ℹ 1,096 more rows
    ## # ℹ 1 more variable: Population <dbl>
…
