…
``` r
# Retain needed columns while changing OCCUR date to a new coumn name/date object
NYPD_select = NYPD_main %>% mutate(date=mdy(OCCUR_DATE)) %>% select(c(date, OCCUR_TIME, BORO, LOC_OF_OCCUR_DESC,PERP_AGE_GROUP,PERP_AGE_GROUP, PERP_SEX,  PERP_RACE, VIC_AGE_GROUP,VIC_SEX, VIC_RACE, INCIDENT_KEY))

# OOps, seems we have some NAs in some columns - Removing more columns and renaming some of the remaining column
NYPD_select = NYPD_select %>% rename(District = BORO, Victim_Age_Group = VIC_AGE_GROUP, Victim_Sex = VIC_SEX, Victim_race=VIC_RACE, 
time = OCCUR_TIME) %>% select(-c(LOC_OF_OCCUR_DESC,PERP_AGE_GROUP,PERP_SEX,PERP_RACE))

#Sort data by date and time and row duplicate rows
NYPD_select = NYPD_select%>% arrange(date, time) %>%distinct()
NYPD_select
```

    ## # A tibble: 26,006 × 7
    ##    date       time   District  Victim_Age_Group Victim_Sex Victim_race   
    ##    <date>     <time> <chr>     <chr>            <chr>      <chr>         
    ##  1 2006-01-01 02:00  BRONX     <18              M          BLACK         
    ##  2 2006-01-01 02:22  MANHATTAN 25-44            M          BLACK         
    ##  3 2006-01-01 02:34  QUEENS    25-44            M          BLACK         
    ##  4 2006-01-01 03:30  BROOKLYN  18-24            M          BLACK         
    ##  5 2006-01-01 05:51  BRONX     18-24            M          WHITE HISPANIC
    ##  6 2006-01-01 12:30  BROOKLYN  25-44            M          BLACK         
    ##  7 2006-01-01 19:00  QUEENS    18-24            M          BLACK         
    ##  8 2006-01-02 00:49  BROOKLYN  25-44            M          BLACK         
    ##  9 2006-01-02 03:59  BROOKLYN  18-24            M          BLACK         
    ## 10 2006-01-02 03:59  BROOKLYN  25-44            M          BLACK HISPANIC
    ## # ℹ 25,996 more rows
    ## # ℹ 1 more variable: INCIDENT_KEY <dbl>
…
#No of crime per district and time
Crime_Date = NYPD_select%>% group_by(District, time)%>%summarize(distinct_crime=n_distinct(INCIDENT_KEY))
```

    ## `summarise()` has grouped output by 'District'. You can override using the
    ## `.groups` argument.

``` r
Crime_Date
```

    ## # A tibble: 5,071 × 3
    ## # Groups:   District [5]
    ##    District time   distinct_crime
    ##    <chr>    <time>          <int>
    ##  1 BRONX    00'00"              4
    ##  2 BRONX    01'00"             18
    ##  3 BRONX    02'00"             11
    ##  4 BRONX    03'00"              6
    ##  5 BRONX    04'00"              9
    ##  6 BRONX    05'00"             16
    ##  7 BRONX    06'00"              3
    ##  8 BRONX    07'00"             12
    ##  9 BRONX    08'00"              7
    ## 10 BRONX    09'00"              6
    ## # ℹ 5,061 more rows
…
``` r
# Retain needed columns while changing OCCUR date to a new coumn name/date object
NYPD_select = NYPD_main %>% mutate(date=mdy(OCCUR_DATE)) %>% select(c(date, OCCUR_TIME, BORO, LOC_OF_OCCUR_DESC,PERP_AGE_GROUP,PERP_AGE_GROUP, PERP_SEX,  PERP_RACE, VIC_AGE_GROUP,VIC_SEX, VIC_RACE, INCIDENT_KEY))

# OOps, seems we have some NAs in some columns - Removing more columns and renaming some of the remaining column
NYPD_select = NYPD_select %>% rename(District = BORO, Victim_Age_Group = VIC_AGE_GROUP, Victim_Sex = VIC_SEX, Victim_race=VIC_RACE, 
time = OCCUR_TIME) %>% select(-c(LOC_OF_OCCUR_DESC,PERP_AGE_GROUP,PERP_SEX,PERP_RACE))

#Sort data by date and time and row duplicate rows
NYPD_select = NYPD_select%>% arrange(date, time) %>%distinct()
NYPD_select
```

    ## # A tibble: 26,006 × 7
    ##    date       time   District  Victim_Age_Group Victim_Sex Victim_race   
    ##    <date>     <time> <chr>     <chr>            <chr>      <chr>         
    ##  1 2006-01-01 02:00  BRONX     <18              M          BLACK         
    ##  2 2006-01-01 02:22  MANHATTAN 25-44            M          BLACK         
    ##  3 2006-01-01 02:34  QUEENS    25-44            M          BLACK         
    ##  4 2006-01-01 03:30  BROOKLYN  18-24            M          BLACK         
    ##  5 2006-01-01 05:51  BRONX     18-24            M          WHITE HISPANIC
    ##  6 2006-01-01 12:30  BROOKLYN  25-44            M          BLACK         
    ##  7 2006-01-01 19:00  QUEENS    18-24            M          BLACK         
    ##  8 2006-01-02 00:49  BROOKLYN  25-44            M          BLACK         
    ##  9 2006-01-02 03:59  BROOKLYN  18-24            M          BLACK         
    ## 10 2006-01-02 03:59  BROOKLYN  25-44            M          BLACK HISPANIC
    ## # ℹ 25,996 more rows
    ## # ℹ 1 more variable: INCIDENT_KEY <dbl>
…
#No of crime per district and time
Crime_Date = NYPD_select%>% group_by(District, time)%>%summarize(distinct_crime=n_distinct(INCIDENT_KEY))
```

    ## `summarise()` has grouped output by 'District'. You can override using the
    ## `.groups` argument.

``` r
Crime_Date
```

    ## # A tibble: 5,071 × 3
    ## # Groups:   District [5]
    ##    District time   distinct_crime
    ##    <chr>    <time>          <int>
    ##  1 BRONX    00'00"              4
    ##  2 BRONX    01'00"             18
    ##  3 BRONX    02'00"             11
    ##  4 BRONX    03'00"              6
    ##  5 BRONX    04'00"              9
    ##  6 BRONX    05'00"             16
    ##  7 BRONX    06'00"              3
    ##  8 BRONX    07'00"             12
    ##  9 BRONX    08'00"              7
    ## 10 BRONX    09'00"              6
    ## # ℹ 5,061 more rows
…
